<?xml version="1.0" encoding="UTF-8" standalone="no"?>
<svg
   xmlns:dc="http://purl.org/dc/elements/1.1/"
   xmlns:cc="http://creativecommons.org/ns#"
   xmlns:rdf="http://www.w3.org/1999/02/22-rdf-syntax-ns#"
   xmlns:svg="http://www.w3.org/2000/svg"
   xmlns="http://www.w3.org/2000/svg"
   xmlns:xlink="http://www.w3.org/1999/xlink"
   xmlns:sodipodi="http://sodipodi.sourceforge.net/DTD/sodipodi-0.dtd"
   xmlns:inkscape="http://www.inkscape.org/namespaces/inkscape"
   viewBox="0 0 113 40"
   id="svg3385"
   version="1.1"
   inkscape:version="0.91 r13725"
   sodipodi:docname="licence__copyright-free.svg">
  <metadata
     id="metadata3397">
    <rdf:RDF>
      <cc:Work
         rdf:about="">
        <dc:format>image/svg+xml</dc:format>
        <dc:type
           rdf:resource="http://purl.org/dc/dcmitype/StillImage" />
        <dc:title></dc:title>
      </cc:Work>
    </rdf:RDF>
  </metadata>
  <defs
     id="defs3395">
    <radialGradient
       r="60.092999"
       gradientTransform="matrix(0.40312,0.0025542,-0.0025535,0.40303,11.781,231.39)"
       cx="19.091999"
       cy="77.700996"
       gradientUnits="userSpaceOnUse"
       id="radialGradient4178">
      <stop
         offset="0"
         stop-opacity="0"
         stop-color="#a3b0a1"
         id="stop3857-24-1" />
      <stop
         offset="1"
         stop-color="#abb1aa"
         id="stop3859-4-3" />
    </radialGradient>
    <radialGradient
       r="60.092999"
       gradientTransform="matrix(0.40312,0.0025542,-0.0025535,0.40303,11.781,178.49)"
       cx="19.091999"
       cy="77.700996"
       gradientUnits="userSpaceOnUse"
       id="radialGradient3914">
      <stop
         offset="0"
         stop-opacity="0"
         stop-color="#a3b0a1"
         id="stop3857-24" />
      <stop
         offset="1"
         stop-color="#abb1aa"
         id="stop3859-4" />
    </radialGradient>
    <radialGradient
       r="60.092999"
       gradientTransform="matrix(0.40312,0.0025542,-0.0025535,0.40303,11.594,-42.436)"
       cx="19.091999"
       cy="77.700996"
       gradientUnits="userSpaceOnUse"
       id="radialGradient4270">
      <stop
         offset="0"
         stop-opacity="0"
         stop-color="#a3b0a1"
         id="stop3857-8" />
      <stop
         offset="1"
         stop-color="#abb1aa"
         id="stop3859-95" />
    </radialGradient>
    <radialGradient
       r="60.092999"
       gradientTransform="matrix(0.40312,0.0025542,-0.0025535,0.40303,11.594,-100.07)"
       cx="19.091999"
       cy="77.700996"
       gradientUnits="userSpaceOnUse"
       id="radialGradient3612">
      <stop
         offset="0"
         stop-opacity="0"
         stop-color="#a3b0a1"
         id="stop3857-1" />
      <stop
         offset="1"
         stop-color="#abb1aa"
         id="stop3859-70" />
    </radialGradient>
    <radialGradient
       r="60.092999"
       gradientTransform="matrix(0.40312,0.0025542,-0.0025535,0.40303,11.594,47.051)"
       cx="19.091999"
       cy="77.700996"
       gradientUnits="userSpaceOnUse"
       id="radialGradient3406">
      <stop
         offset="0"
         stop-opacity="0"
         stop-color="#a3b0a1"
         id="stop3857" />
      <stop
         offset="1"
         stop-color="#abb1aa"
         id="stop3859" />
    </radialGradient>
    <radialGradient
       r="60.092999"
       gradientTransform="matrix(0.40312,0.0025542,-0.0025535,0.40303,11.594,2.7433)"
       cx="19.091999"
       cy="77.700996"
       gradientUnits="userSpaceOnUse"
       id="radialGradient4272">
      <stop
         offset="0"
         stop-opacity="0"
         stop-color="#a3b0a1"
         id="stop3857-2" />
      <stop
         offset="1"
         stop-color="#abb1aa"
         id="stop3859-7" />
    </radialGradient>
    <radialGradient
       r="60.092999"
       gradientTransform="matrix(0.40312,0.0025542,-0.0025535,0.40303,11.781,231.39)"
       cx="19.091999"
       cy="77.700996"
       gradientUnits="userSpaceOnUse"
       id="radialGradient4178-0">
      <stop
         offset="0"
         stop-opacity="0"
         stop-color="#a3b0a1"
         id="stop3857-24-1-4" />
      <stop
         offset="1"
         stop-color="#abb1aa"
         id="stop3859-4-3-1" />
    </radialGradient>
    <radialGradient
       r="60.092999"
       gradientTransform="matrix(0.40312,0.0025542,-0.0025535,0.40303,11.781,178.49)"
       cx="19.091999"
       cy="77.700996"
       gradientUnits="userSpaceOnUse"
       id="radialGradient3914-9">
      <stop
         offset="0"
         stop-opacity="0"
         stop-color="#a3b0a1"
         id="stop3857-24-7" />
      <stop
         offset="1"
         stop-color="#abb1aa"
         id="stop3859-4-7" />
    </radialGradient>
    <radialGradient
       r="60.092999"
       gradientTransform="matrix(0.40312,0.0025542,-0.0025535,0.40303,11.594,-42.436)"
       cx="19.091999"
       cy="77.700996"
       gradientUnits="userSpaceOnUse"
       id="radialGradient4270-2">
      <stop
         offset="0"
         stop-opacity="0"
         stop-color="#a3b0a1"
         id="stop3857-8-5" />
      <stop
         offset="1"
         stop-color="#abb1aa"
         id="stop3859-95-5" />
    </radialGradient>
    <radialGradient
       r="60.092999"
       gradientTransform="matrix(0.40312,0.0025542,-0.0025535,0.40303,-7.571635,-171.6575)"
       cx="19.091999"
       cy="77.700996"
       gradientUnits="userSpaceOnUse"
       id="radialGradient3612-7">
      <stop
         offset="0"
         stop-opacity="0"
         stop-color="#a3b0a1"
         id="stop3857-1-4" />
      <stop
         offset="1"
         stop-color="#abb1aa"
         id="stop3859-70-6" />
    </radialGradient>
    <radialGradient
       r="60.092999"
       gradientTransform="matrix(0.40312,0.0025542,-0.0025535,0.40303,11.594,47.051)"
       cx="19.091999"
       cy="77.700996"
       gradientUnits="userSpaceOnUse"
       id="radialGradient3406-8">
      <stop
         offset="0"
         stop-opacity="0"
         stop-color="#a3b0a1"
         id="stop3857-87" />
      <stop
         offset="1"
         stop-color="#abb1aa"
         id="stop3859-6" />
    </radialGradient>
    <radialGradient
       r="60.092999"
       gradientTransform="matrix(0.40312,0.0025542,-0.0025535,0.40303,11.594,2.7433)"
       cx="19.091999"
       cy="77.700996"
       gradientUnits="userSpaceOnUse"
       id="radialGradient4272-7">
      <stop
         offset="0"
         stop-opacity="0"
         stop-color="#a3b0a1"
         id="stop3857-2-0" />
      <stop
         offset="1"
         stop-color="#abb1aa"
         id="stop3859-7-8" />
    </radialGradient>
    <radialGradient
       inkscape:collect="always"
       xlink:href="#radialGradient3612"
       id="radialGradient9446"
       gradientUnits="userSpaceOnUse"
       gradientTransform="matrix(0.40312,0.0025542,-0.0025535,0.40303,-38.065321,101.824)"
       cx="19.091999"
       cy="77.700996"
       r="60.092999" />
  </defs>
  <sodipodi:namedview
     pagecolor="#ffffff"
     bordercolor="#666666"
     borderopacity="1"
     objecttolerance="10"
     gridtolerance="10"
     guidetolerance="10"
     inkscape:pageopacity="0"
     inkscape:pageshadow="2"
     inkscape:window-width="1188"
     inkscape:window-height="758"
     id="namedview3393"
     showgrid="false"
     inkscape:zoom="4"
     inkscape:cx="59.734687"
     inkscape:cy="-0.36884497"
     inkscape:window-x="0"
     inkscape:window-y="0"
     inkscape:window-maximized="0"
     inkscape:current-layer="svg3385" />
  <g
     id="g8718"
     transform="translate(-134.73332,6.654)">
    <g
       style="fill-rule:evenodd"
       id="g8724"
       transform="matrix(0.34375,0,0,0.34373,150,59.254)" />
  </g>
  <g
     id="g9494"
     transform="matrix(0.93967188,0,0,0.93792839,47.427139,-105.29317)">
    <path
       style="fill:url(#radialGradient9446);stroke:#000000;stroke-width:1.06518984"
       d="m -48.182336,112.79401 115.675371,0 c 0.973553,0 1.757316,0.70067 1.757316,1.57101 l 0,38.43997 c 0,0.87034 -0.783763,1.57102 -1.757316,1.57102 l -115.675371,0 c -0.973553,0 -1.757315,-0.70068 -1.757315,-1.57102 l 0,-38.43997 c 0,-0.87034 0.783762,-1.57101 1.757315,-1.57101 z"
       id="rect9430" />
    <path
       sodipodi:nodetypes="ccsccccccc"
       style="stroke:#000000;stroke-width:1.06518984px"
       inkscape:connector-curvature="0"
       id="path9432"
       d="m -19.571168,154.21497 0,-3.93573 c 5.9967,-3.812 9.417502,-8.731 9.354001,-16.783 -0.0635,-8.052 -3.927501,-13.589 -9.354001,-16.923 l 0.0366,-3.6757 87.148743,0.0107 1.5026,1.8562 0,37.59193 -1.4142,1.6794 z" />
    <g
       transform="translate(0,0.62935671)"
       id="g9454">
      <g
         transform="translate(-49.659321,54.774)"
         id="g9434">
        <path
           transform="translate(-0.2329,-0.005945)"
           d="M 36,78.188 C 36,87.059 28.809,94.25 19.938,94.25 11.066,94.25 3.875,87.059 3.875,78.188 3.875,69.316 11.066,62.125 19.938,62.125 28.809,62.125 36,69.316 36,78.188 Z"
           id="path9436"
           inkscape:connector-curvature="0"
           style="fill:#ffffff" />
        <path
           d="m 19.681,60.977 c -4.7135,0 -8.8614,1.7444 -12.067,4.9964 -3.2998,3.3465 -5.0909,7.6833 -5.0909,12.208 0,4.5724 1.7438,8.8147 5.0436,12.114 3.2998,3.2998 7.5888,5.0909 12.114,5.0909 4.5246,0 8.9086,-1.7911 12.302,-5.1376 3.2053,-3.1581 4.9019,-7.3532 4.9019,-12.067 0,-4.6663 -1.6966,-8.9081 -4.9492,-12.161 -3.2993,-3.2998 -7.5416,-5.0436 -12.255,-5.0436 z m 0.0467,3.1109 c 3.8655,0 7.3065,1.461 9.9928,4.1484 2.6396,2.6391 4.0534,6.1273 4.0534,9.945 0,3.865 -1.367,7.2592 -4.0061,9.8516 -2.7813,2.7336 -6.3634,4.1951 -10.04,4.1951 -3.7233,0 -7.2115,-1.461 -9.8983,-4.1484 -2.6869,-2.6869 -4.1951,-6.2217 -4.1951,-9.8983 0,-3.7233 1.5082,-7.2582 4.1951,-9.9928 2.6396,-2.6863 6.0334,-4.1006 9.8983,-4.1006 z"
           id="path9438"
           inkscape:connector-curvature="0" />
      </g>
      <path
         style="fill:#000000"
         inkscape:connector-curvature="0"
         d="m -29.955471,126.04815 c -3.9615,0 -4.9575,3.73875 -4.9575,6.9075 0,3.16875 0.9975,6.90749 4.9575,6.90749 3.96,0 4.9575,-3.73874 4.9575,-6.90749 0,-3.16875 -0.995625,-6.9075 -4.9575,-6.9075 z m 0,2.60625 c 0.16125,0 0.3075,0.0225 0.44625,0.0562 0.285,0.2475 0.42375,0.5865 0.15,1.06125 l -2.63775,4.84725 c -0.081,-0.6135 -0.09225,-1.215 -0.09225,-1.6635 0,-1.39613 0.09637,-4.30275 2.13375,-4.30275 z m 1.975125,2.23387 c 0.162375,0.74363 0.162375,1.521 0.162375,2.06738 0,1.395 -0.0975,4.30312 -2.1375,4.30312 -0.159375,0 -0.3075,-0.0169 -0.444375,-0.0506 -0.02812,-0.008 -0.05063,-0.015 -0.07687,-0.0263 -0.04125,-0.0112 -0.08625,-0.0262 -0.124875,-0.0412 -0.45375,-0.19238 -0.7395,-0.5415 -0.328875,-1.15875 l 2.950125,-5.0925 z"
         id="path9444" />
    </g>
    <g
       style="font-style:normal;font-weight:normal;font-size:7.5px;line-height:125%;font-family:sans-serif;letter-spacing:0px;word-spacing:0px;fill:#000000;fill-opacity:1;stroke:none;stroke-width:1px;stroke-linecap:butt;stroke-linejoin:miter;stroke-opacity:1"
       id="text9482">
      <path
         d="m 4.6329102,126.35251 2.57125,0 c 1.8425,0 3.0249998,-1.30625 3.0249998,-3.34125 0,-2.0075 -1.1412498,-3.1075 -3.2312498,-3.1075 l -4.4275,0 0,10.02375 2.0625,0 0,-3.575 z m 0,-1.71875 0,-3.01125 1.925,0 c 1.1,0 1.60875,0.48125 1.60875,1.5125 0,1.0175 -0.50875,1.49875 -1.60875,1.49875 l -1.925,0 z"
         style="font-style:normal;font-variant:normal;font-weight:bold;font-stretch:normal;font-size:13.75px;font-family:'Nimbus Sans L';-inkscape-font-specification:'Nimbus Sans L Bold';fill:#ffffff"
         id="path9518" />
      <path
         d="m 17.613125,119.90376 0,6.7925 c 0,1.21 -0.61875,1.7875 -1.91125,1.7875 -1.2925,0 -1.91125,-0.5775 -1.91125,-1.7875 l 0,-6.7925 -2.0625,0 0,6.7925 c 0,1.1275 0.3025,1.925 0.97625,2.53 0.72875,0.66 1.7875,1.0175 2.9975,1.0175 1.21,0 2.26875,-0.3575 2.9975,-1.0175 0.67375,-0.605 0.97625,-1.4025 0.97625,-2.53 l 0,-6.7925 -2.0625,0 z"
         style="font-style:normal;font-variant:normal;font-weight:bold;font-stretch:normal;font-size:13.75px;font-family:'Nimbus Sans L';-inkscape-font-specification:'Nimbus Sans L Bold';fill:#ffffff"
         id="path9520" />
      <path
         d="m 21.747148,129.92751 4.51,0 c 1.155,0 1.925,-0.22 2.53,-0.72875 0.605,-0.50875 0.99,-1.36125 0.99,-2.15875 0,-0.99 -0.53625,-1.77375 -1.66375,-2.43375 0.99,-0.6325 1.375,-1.21 1.375,-2.0625 0,-0.6875 -0.34375,-1.41625 -0.9075,-1.91125 -0.59125,-0.50875 -1.2925,-0.72875 -2.365,-0.72875 l -4.46875,0 0,10.02375 z m 2.0625,-8.305 2.24125,0 c 0.94875,0 1.4575,0.39875 1.4575,1.14125 0,0.72875 -0.50875,1.1275 -1.4575,1.1275 l -2.24125,0 0,-2.26875 z m 0,3.9875 2.46125,0 c 1.00375,0 1.52625,0.45375 1.52625,1.30625 0,0.83875 -0.5225,1.2925 -1.52625,1.2925 l -2.46125,0 0,-2.59875 z"
         style="font-style:normal;font-variant:normal;font-weight:bold;font-stretch:normal;font-size:13.75px;font-family:'Nimbus Sans L';-inkscape-font-specification:'Nimbus Sans L Bold';fill:#ffffff"
         id="path9522" />
      <path
         d="m 33.718672,119.90376 -2.0625,0 0,10.02375 6.86125,0 0,-1.71875 -4.79875,0 0,-8.305 z"
         style="font-style:normal;font-variant:normal;font-weight:bold;font-stretch:normal;font-size:13.75px;font-family:'Nimbus Sans L';-inkscape-font-specification:'Nimbus Sans L Bold';fill:#ffffff"
         id="path9524" />
      <path
         d="m 41.890684,119.90376 -2.0625,0 0,10.02375 2.0625,0 0,-10.02375 z"
         style="font-style:normal;font-variant:normal;font-weight:bold;font-stretch:normal;font-size:13.75px;font-family:'Nimbus Sans L';-inkscape-font-specification:'Nimbus Sans L Bold';fill:#ffffff"
         id="path9526" />
      <path
         d="m 52.15291,123.30001 c -0.06875,-0.86625 -0.2475,-1.41625 -0.67375,-1.98 -0.77,-1.0175 -2.0075,-1.58125 -3.50625,-1.58125 -2.8325,0 -4.5925,2.02125 -4.5925,5.26625 0,3.2175 1.74625,5.23875 4.5375,5.23875 2.48875,0 4.1525,-1.44375 4.27625,-3.74 l -2.0075,0 c -0.12375,1.27875 -0.935,2.0075 -2.21375,2.0075 -1.595,0 -2.53,-1.2925 -2.53,-3.47875 0,-2.21375 0.97625,-3.53375 2.59875,-3.53375 0.715,0 1.30625,0.2475 1.69125,0.72875 0.22,0.275 0.33,0.53625 0.45375,1.0725 l 1.96625,0 z"
         style="font-style:normal;font-variant:normal;font-weight:bold;font-stretch:normal;font-size:13.75px;font-family:'Nimbus Sans L';-inkscape-font-specification:'Nimbus Sans L Bold';fill:#ffffff"
         id="path9528" />
      <path
         d="m 2.5841602,147.11501 3.91875,0 c 1.52625,0 2.48875,-0.3575 3.1625,-1.16875 0.7974998,-0.935 1.2237498,-2.29625 1.2237498,-3.85 0,-1.54 -0.42625,-2.90125 -1.2237498,-3.85 -0.67375,-0.81125 -1.6225,-1.155 -3.1625,-1.155 l -3.91875,0 0,10.02375 z m 2.0625,-1.71875 0,-6.58625 1.85625,0 c 1.55375,0 2.32375,1.08625 2.32375,3.3 0,2.2 -0.77,3.28625 -2.32375,3.28625 l -1.85625,0 z"
         style="font-style:normal;font-variant:normal;font-weight:bold;font-stretch:normal;font-size:13.75px;font-family:'Nimbus Sans L';-inkscape-font-specification:'Nimbus Sans L Bold';fill:#ffffff"
         id="path9530" />
      <path
         d="m 16.797578,136.92626 c -1.4025,0 -2.5575,0.4675 -3.41,1.38875 -0.89375,0.9625 -1.4025,2.365 -1.4025,3.86375 0,1.49875 0.50875,2.915 1.4025,3.86375 0.86625,0.935 1.99375,1.38875 3.42375,1.38875 1.43,0 2.5575,-0.45375 3.42375,-1.38875 0.86625,-0.92125 1.4025,-2.37875 1.4025,-3.795 0,-1.5675 -0.50875,-2.97 -1.4025,-3.9325 -0.88,-0.94875 -1.99375,-1.38875 -3.4375,-1.38875 z m 0.01375,1.76 c 1.69125,0 2.76375,1.375 2.76375,3.5475 0,2.04875 -1.11375,3.4375 -2.76375,3.4375 -1.66375,0 -2.76375,-1.38875 -2.76375,-3.4925 0,-2.10375 1.1,-3.4925 2.76375,-3.4925 z"
         style="font-style:normal;font-variant:normal;font-weight:bold;font-stretch:normal;font-size:13.75px;font-family:'Nimbus Sans L';-inkscape-font-specification:'Nimbus Sans L Bold';fill:#ffffff"
         id="path9532" />
      <path
         d="m 25.093555,139.30501 1.80125,7.81 2.0625,0 1.77375,-7.81 0,7.81 2.0625,0 0,-10.02375 -3.1075,0 -1.76,7.975 -1.815,-7.975 -3.08,0 0,10.02375 2.0625,0 0,-7.81 z"
         style="font-style:normal;font-variant:normal;font-weight:bold;font-stretch:normal;font-size:13.75px;font-family:'Nimbus Sans L';-inkscape-font-specification:'Nimbus Sans L Bold';fill:#ffffff"
         id="path9534" />
      <path
         d="m 40.47959,145.09376 0.66,2.02125 2.1175,0 -3.465,-10.02375 -2.2825,0 -3.56125,10.02375 2.10375,0 0.67375,-2.02125 3.75375,0 z m -0.56375,-1.71875 -2.6125,0 1.30625,-3.91875 1.30625,3.91875 z"
         style="font-style:normal;font-variant:normal;font-weight:bold;font-stretch:normal;font-size:13.75px;font-family:'Nimbus Sans L';-inkscape-font-specification:'Nimbus Sans L Bold';fill:#ffffff"
         id="path9536" />
      <path
         d="m 46.456113,137.09126 -2.0625,0 0,10.02375 2.0625,0 0,-10.02375 z"
         style="font-style:normal;font-variant:normal;font-weight:bold;font-stretch:normal;font-size:13.75px;font-family:'Nimbus Sans L';-inkscape-font-specification:'Nimbus Sans L Bold';fill:#ffffff"
         id="path9538" />
      <path
         d="m 54.36709,147.11501 2.0625,0 0,-10.02375 -2.0625,0 0,6.82 -3.97375,-6.82 -2.1175,0 0,10.02375 2.0625,0 0,-6.93 4.02875,6.93 z"
         style="font-style:normal;font-variant:normal;font-weight:bold;font-stretch:normal;font-size:13.75px;font-family:'Nimbus Sans L';-inkscape-font-specification:'Nimbus Sans L Bold';fill:#ffffff"
         id="path9540" />
    </g>
  </g>
</svg>
